{
    "name": "Surveillance",
    "alias": "surveillance",
    "version": "1.0.0",
	"description": "",
    "keywords": [],
    "priority": 1,
    "providers": [
        "Modules\\Surveillance\\Providers\\SurveillanceServiceProvider",
        "Modules\\Surveillance\\Providers\\EventServiceProvider",
        "Modules\\Surveillance\\Providers\\RouteServiceProvider"
    ],
    "aliases": {},
    "files": [],
    "requires": []
}
